\babel@toc {spanish}{}
\contentsline {chapter}{\numberline {1}Definición de la empresa}{2}%
\contentsline {chapter}{\numberline {2}Planeación y preparación del equipo de trabajo}{3}%
\contentsline {chapter}{\numberline {3}Diseño del proyecto}{4}%
\contentsline {chapter}{\numberline {4}Productos o servicios ofrecidos}{5}%
\contentsline {chapter}{\numberline {5}Evaluación}{6}%
\contentsline {chapter}{\numberline {6}Propuesta de la primera etapa del proyecto}{7}%
\contentsline {chapter}{\numberline {7}Conclusiones}{8}%
