# Fdb version 3
["pdflatex"] 1582080456 "c:/Users/josue.ruiz/Documents/ESCOM/It governance/documentation/Reportes/reporte_1.tex" "c:/Users/josue.ruiz/Documents/ESCOM/It governance/documentation/Reportes/reporte_1.pdf" "reporte_1" 1582080456
  "C:/Program Files/MiKTeX 2.9/fonts/type1/public/amsfonts/cm/cmr10.pfb" 1247593067 35752 024fb6c41858982481f6968b5fc26508 ""
  "C:/Users/josue.ruiz/AppData/Local/MiKTeX/2.9/miktex/data/le/pdftex/pdflatex.fmt" 1580761734 3763879 ab323415452466ed215f89f498df628a ""
  "C:/Users/josue.ruiz/AppData/Local/MiKTeX/2.9/pdftex/config/pdftex.map" 1580761661 77580 0902bf85dfadfdef13ad4bb0cb98be38 ""
  "c:/Users/josue.ruiz/Documents/ESCOM/It governance/documentation/Reportes/reporte_1.aux" 1582080456 9 a94a2480d3289e625eea47cd1b285758 ""
  "c:/Users/josue.ruiz/Documents/ESCOM/It governance/documentation/Reportes/reporte_1.tex" 1582080452 498 235efe0b58db4a98dd06d49d01ac3f9f ""
  "reporte_1.aux" 0 -1 0 "pdflatex"
  "reporte_1.tex" 1582080452 498 235efe0b58db4a98dd06d49d01ac3f9f ""
  (generated)
  "c:/Users/josue.ruiz/Documents/ESCOM/It governance/documentation/Reportes/reporte_1.pdf"
  "reporte_1.aux"
  "c:/Users/josue.ruiz/Documents/ESCOM/It governance/documentation/Reportes/reporte_1.log"
  "reporte_1.log"
  "reporte_1.pdf"
